Gridding irregular spatial points into bins
…
It is a simple feature with one variable (i.e catch) and 400 observation. We also see that the coordinate information, which are in degree decimal are embedded in the geometry. Let us have a corresponding tibble from this simple feature with point_tb function

point.tb = data.points %>% 
  point_tb()

point.tb
#> # A tibble: 400 x 3
#>      lon   lat catch
#>    <dbl> <dbl> <dbl>
#>  1  39.2 -5.33  617.
#>  2  39.3 -5.24  517.
#>  3  39.4 -5.20  279.
#>  4  39.4 -4.78  587.
#>  5  39.4 -5.41  505.
#>  6  39.2 -5.33  697.
#>  7  39.4 -5.35  498.
#>  8  39.3 -5.35  587.
#>  9  39.5 -5.20  471.
#> 10  39.3 -5.36  606.
#> # ... with 390 more rows

2.2 Polygon to tibble

The other function that wior package offers is to change from polygon to tibble. This happens sometimes when you want for instance to map and label polygon. You need to extract the centroid point of each polygon and then stitch the attributes to them for you to label them on the map. Let us use a simple feature that represent 51 countries of Africa.

africa
#> Simple feature collection with 51 features and 10 fields
#> geometry type:  MULTIPOLYGON
#> dimension:      XY
#> bbox:           xmin: -17.62504 ymin: -34.81917 xmax: 51.13387 ymax: 37.34999
#> geographic CRS: WGS 84
#> # A tibble: 51 x 11
#>    iso_a2 name_long continent region_un subregion type  area_km2     pop lifeExp
#>  * <chr>  <chr>     <chr>     <chr>     <chr>     <chr>    <dbl>   <dbl>   <dbl>
#>  1 TZ     Tanzania  Africa    Africa    Eastern ~ Sove~  932746.  5.22e7    64.2
#>  2 EH     Western ~ Africa    Africa    Northern~ Inde~   96271. NA         NA  
#>  3 CD     Democrat~ Africa    Africa    Middle A~ Sove~ 2323492.  7.37e7    58.8
#>  4 SO     Somalia   Africa    Africa    Eastern ~ Sove~  484333.  1.35e7    55.5
#>  5 KE     Kenya     Africa    Africa    Eastern ~ Sove~  590837.  4.60e7    66.2
#>  6 SD     Sudan     Africa    Africa    Northern~ Sove~ 1850886.  3.77e7    64.0
#>  7 TD     Chad      Africa    Africa    Middle A~ Sove~ 1271695.  1.36e7    52.2
#>  8 ZA     South Af~ Africa    Africa    Southern~ Sove~ 1216401.  5.45e7    61.0
#>  9 LS     Lesotho   Africa    Africa    Southern~ Sove~   27506.  2.15e6    53.3
#> 10 ZW     Zimbabwe  Africa    Africa    Eastern ~ Sove~  376328.  1.54e7    59.4
#> # ... with 41 more rows, and 2 more variables: gdpPercap <dbl>,
#> #   geom <MULTIPOLYGON [°]>

You notice that is a multipolygon, to turn this into tibble, we use a polygon_tb function

africa.tb = africa %>% 
  polygon_tb()
#> Warning in st_centroid.sf(.): st_centroid assumes attributes are constant over
#> geometries of x
#> Warning in st_centroid.sfc(st_geometry(x), of_largest_polygon =
#> of_largest_polygon): st_centroid does not give correct centroids for longitude/
#> latitude data

africa.tb
#> # A tibble: 51 x 12
#>      lon     lat iso_a2 name_long continent region_un subregion type  area_km2
#>    <dbl>   <dbl> <chr>  <chr>     <chr>     <chr>     <chr>     <chr>    <dbl>
#>  1  34.8  -6.26  TZ     Tanzania  Africa    Africa    Eastern ~ Sove~  932746.
#>  2 -12.1  24.3   EH     Western ~ Africa    Africa    Northern~ Inde~   96271.
#>  3  23.6  -2.85  CD     Democrat~ Africa    Africa    Middle A~ Sove~ 2323492.
#>  4  45.7   4.75  SO     Somalia   Africa    Africa    Eastern ~ Sove~  484333.
#>  5  37.8   0.596 KE     Kenya     Africa    Africa    Eastern ~ Sove~  590837.
#>  6  29.9  16.0   SD     Sudan     Africa    Africa    Northern~ Sove~ 1850886.
#>  7  18.6  15.3   TD     Chad      Africa    Africa    Middle A~ Sove~ 1271695.
#>  8  25.0 -28.9   ZA     South Af~ Africa    Africa    Southern~ Sove~ 1216401.
#>  9  28.2 -29.6   LS     Lesotho   Africa    Africa    Southern~ Sove~   27506.
#> 10  29.8 -18.9   ZW     Zimbabwe  Africa    Africa    Eastern ~ Sove~  376328.
#> # ... with 41 more rows, and 3 more variables: pop <dbl>, lifeExp <dbl>,
#> #   gdpPercap <dbl>
…
