…
``` r
require(wior)

ctd = wior::cnv_tibble(cnv = "data/dstn054.cnv", interval = 10)
```

We can then have

``` r

ctd %>% 
  dplyr::mutate(dplyr::across(is.numeric,round,2)) %>% 
  # dplyr::slice(1:12) %>%
  dplyr::select(time, pressure, temperature2:fluorescence)
# A tibble: 66 x 7
   time                pressure temperature2 conductivity salinity oxygen
   <dttm>                 <dbl>        <dbl>        <dbl>    <dbl>  <dbl>
 1 2004-08-19 17:39:39        0         25.1         5.3      34.9   4.64
 2 2004-08-19 17:39:39       10         25.1         5.3      34.9   4.64
 3 2004-08-19 17:39:39       20         25.0         5.29     34.9   4.65
 4 2004-08-19 17:39:39       30         24.8         5.27     34.9   4.47
 5 2004-08-19 17:39:39       40         24.7         5.26     34.9   4.36
 6 2004-08-19 17:39:39       50         24.7         5.26     34.9   4.34
 7 2004-08-19 17:39:39       60         24.7         5.26     34.9   4.33
 8 2004-08-19 17:39:39       70         24.5         5.24     34.9   4.27
 9 2004-08-19 17:39:39       80         24.0         5.2      34.9   4.14
10 2004-08-19 17:39:39       90         23.5         5.15     35.0   3.94
# ... with 56 more rows, and 1 more variable: fluorescence <dbl>
```
…
